Final Project Group 9
…
Create a numeric variable: GDP

whole_data %>% 
  mutate(GDP = GDP_per_capita * Population)

## # A tibble: 2,938 x 24
##    Country  Year Status `Life expectanc `Adult Mortalit `infant deaths`
##    <chr>   <dbl> <chr>             <dbl>            <dbl>           <dbl>
##  1 Afghan  2015 Devel             65                263              62
##  2 Afghan  2014 Devel             59.9              271              64
##  3 Afghan  2013 Devel             59.9              268              66
##  4 Afghan  2012 Devel             59.5              272              69
##  5 Afghan  2011 Devel             59.2              275              71
##  6 Afghan  2010 Devel             58.8              279              74
##  7 Afghan  2009 Devel             58.6              281              77
##  8 Afghan  2008 Devel             58.1              287              80
##  9 Afghan  2007 Devel             57.5              295              82
## 10 Afghan  2006 Devel             57.3              295              84
## #  with 2,928 more rows, and 18 more variables: Alcohol <dbl>, `percentage
## #   expenditure` <dbl>, `Hepatitis B` <dbl>, Measles <dbl>, BMI <dbl>,
## #   `under-five deaths` <dbl>, Polio <dbl>, `Total expenditure` <dbl>,
## #   Diphtheria <dbl>, `HIV/AIDS` <dbl>, GDP_per_capita <dbl>, Population <dbl>,
## #   `thinness 1-19 years` <dbl>, `thinness 5-9 years` <dbl>, `Income
## #   composition of resources` <dbl>, Schooling <dbl>, Continent <chr>,
## #   GDP <dbl>
…
